12,1029
12,1033
12,1027
12,1031
12,1031
12,1031
12,1031
12,1031
12,1029
12,1031
12,1031
12,1029
12,1029
12,1029
12,1029
12,1029
12,1029
12,1029
12,1029
12,1046
12,1046
12,1046
12,1046
12,1044
12,1115
12,1106
12,1098
12,11
12,1098
12,11
12,1096
12,1104
12,1104
12,1104
12,1104
12,1104
12,1104
12,1104
12,1104
12,1104
12,1104
12,1104
12,1104
12,1104
12,1104
12,1104
12,1104
12,1104
12,1104
12,1104
12,1096
12,1096
12,1113
12,1113
12,1113
12,118
12,1177
12,118
12,118
12,1177
12,118
