18,7003
18,7081
18,7083
18,7244
18,734
18,7366
18,7379
18,7476
18,7569
18,7536
18,7536
18,7569
18,76
18,7576
18,7698
18,7708
18,7801
18,7779
18,7833
18,7178
18,7051
18,7116
18,7182
18,718
18,7212
18,7244
18,7279
18,7245
18,7211
18,7307
18,727
18,7177
18,7325
18,7323
18,7388
18,7352
18,7365
18,7384
18,7416
18,7449
18,7547
18,7612
18,7481
18,7516
18,7548
18,7609
18,7576
18,7576
18,7706
18,7573
18,7508
18,7608
18,7666
18,7739
18,7734
18,7832
18,7842
18,7928
18,786
18,7888
18,7892
