5,50 
4,85 
4,50 
4,35 
4,25 
4,10 
3,90 
3,80 
3,70 
3,60 
3,50 
3,35 
3,25 
3,20 
3,05 
3,00 
2,90 
2,85 
2,80 
2,75 
2,70 
2,65 
2,60 
2,55 
2,50 
2,50 
2,45 
2,35 
2,35 
2,30 
2,30 
2,25 
2,25 
2,20 
2,15 
2,10 
2,10 
2,05 
2,05 
1,90 
1,90 
1,85 
1,85 
1,75 
1,75 
1,70 
1,70 
1,70 
1,65 
1,65 
1,65 
1,60 
1,60 
1,60 
1,60 
1,55 
1,50 
1,50 
1,45 
1,45 
1,45 
