11,8157
11,8091
11,8078
11,808
11,808
11,808
11,808
11,8145
11,8144
11,8144
11,8144
11,8146
11,8144
11,8144
11,8144
11,8144
11,8144
11,8144
11,8144
11,8144
11,8152
11,8228
11,8228
11,8161
11,8228
11,8228
11,8228
11,8228
11,8228
11,8228
11,8161
11,8149
11,8149
11,8149
11,8149
11,8285
11,8278
11,8278
11,8278
11,8278
11,8281
11,8274
11,8274
11,8274
11,8272
11,8274
11,8272
11,8272
11,8272
11,8272
11,8276
11,8276
11,8276
11,8274
11,8276
11,8276
11,8276
11,8276
11,8274
11,8276
11,8343
