{
  "id": 4266600672,
  "status": "success",
  "stage": "metrics",
  "name": "job1",
  "ref": "main",
  "tag": false,
  "coverage": null,
  "allow_failure": false,
  "created_at": "2023-05-11T10:01:49.131Z",
  "started_at": "2023-05-11T10:01:49.977Z",
  "finished_at": "2023-05-11T10:03:24.279Z",
  "erased_at": null,
  "duration": 94.302545,
  "queued_duration": 0.58524,
  "user": {
    "id": 10153869,
    "username": "turyji",
    "name": "Jiří Turyna",
    "state": "active",
    "avatar_url": "https://secure.gravatar.com/avatar/7104d6da72a39f404aaf9a23d834007f?s=80&d=identicon",
    "web_url": "https://gitlab.com/turyji",
    "created_at": "2021-11-05T22:12:20.248Z",
    "bio": "",
    "location": "",
    "public_email": null,
    "skype": "",
    "linkedin": "",
    "twitter": "",
    "discord": "",
    "website_url": "",
    "organization": "",
    "job_title": "",
    "pronouns": null,
    "bot": false,
    "work_information": null,
    "followers": 0,
    "following": 0,
    "local_time": null
  },
  "commit": {
    "id": "70acd2326835049352c17e4f9fbe681f8f82698f",
    "short_id": "70acd232",
    "created_at": "2023-05-11T11:48:49.000+02:00",
    "parent_ids": [
      "439c100a912d242b60b33e447b8d2331defb78f0"
    ],
    "title": "number of cpus",
    "message": "number of cpus\n",
    "author_name": "Jiří",
    "author_email": "jiri.turyna@jablotron.cz",
    "authored_date": "2023-05-11T11:48:49.000+02:00",
    "committer_name": "Jiří",
    "committer_email": "jiri.turyna@jablotron.cz",
    "committed_date": "2023-05-11T11:48:49.000+02:00",
    "trailers": {},
    "web_url": "https://gitlab.com/turyji/bp-turyna/-/commit/70acd2326835049352c17e4f9fbe681f8f82698f"
  },
  "pipeline": {
    "id": 864169360,
    "iid": 162,
    "project_id": 32057431,
    "sha": "70acd2326835049352c17e4f9fbe681f8f82698f",
    "ref": "main",
    "status": "success",
    "source": "web",
    "created_at": "2023-05-11T09:57:29.802Z",
    "updated_at": "2023-05-11T10:03:25.118Z",
    "web_url": "https://gitlab.com/turyji/bp-turyna/-/pipelines/864169360"
  },
  "web_url": "https://gitlab.com/turyji/bp-turyna/-/jobs/4266600672",
  "project": {
    "ci_job_token_scope_enabled": false
  },
  "artifacts_file": {
    "filename": "artifacts.zip",
    "size": 536
  },
  "artifacts": [
    {
      "file_type": "archive",
      "size": 536,
      "filename": "artifacts.zip",
      "file_format": "zip"
    },
    {
      "file_type": "metadata",
      "size": 195,
      "filename": "metadata.gz",
      "file_format": "gzip"
    },
    {
      "file_type": "trace",
      "size": 12975,
      "filename": "job.log",
      "file_format": null
    }
  ],
  "runner": {
    "id": 12270831,
    "description": "2-blue.shared.runners-manager.gitlab.com/default",
    "ip_address": "34.75.105.58",
    "active": true,
    "paused": false,
    "is_shared": true,
    "runner_type": "instance_type",
    "name": "gitlab-runner",
    "online": true,
    "status": "online"
  },
  "artifacts_expire_at": "2023-06-10T10:03:20.827Z",
  "tag_list": []
}
