40,6038
40,5957
40,5932
40,5994
40,5955
40,5678
40,5736
40,5902
40,5832
40,5827
40,5674
40,59
40,5993
40,5989
40,5905
40,5645
40,5738
40,6007
40,5977
40,5685
40,5617
40,5701
40,5894
40,6042
40,5707
40,5733
40,5958
40,6072
40,6117
40,5731
40,5711
40,5891
40,5961
40,5953
40,5769
40,5771
40,5857
40,6025
40,5975
40,5683
40,5648
40,6652
40,5897
40,6017
40,5533
40,7693
40,3944
40,4687
40,2561
40,1988
40,1934
40,223
40,2331
40,2313
40,2094
40,231
40,2279
40,2377
40,229
40,2064
40,2295
