{
  "id": 4267468407,
  "status": "success",
  "stage": "metrics",
  "name": "job3",
  "ref": "main",
  "tag": false,
  "coverage": null,
  "allow_failure": false,
  "created_at": "2023-05-11T12:04:31.370Z",
  "started_at": "2023-05-11T12:04:33.553Z",
  "finished_at": "2023-05-11T12:06:36.924Z",
  "erased_at": null,
  "duration": 123.370833,
  "queued_duration": 1.766447,
  "user": {
    "id": 10153869,
    "username": "turyji",
    "name": "Jiří Turyna",
    "state": "active",
    "avatar_url": "https://secure.gravatar.com/avatar/7104d6da72a39f404aaf9a23d834007f?s=80&d=identicon",
    "web_url": "https://gitlab.com/turyji",
    "created_at": "2021-11-05T22:12:20.248Z",
    "bio": "",
    "location": "",
    "public_email": null,
    "skype": "",
    "linkedin": "",
    "twitter": "",
    "discord": "",
    "website_url": "",
    "organization": "",
    "job_title": "",
    "pronouns": null,
    "bot": false,
    "work_information": null,
    "followers": 0,
    "following": 0,
    "local_time": null
  },
  "commit": {
    "id": "70acd2326835049352c17e4f9fbe681f8f82698f",
    "short_id": "70acd232",
    "created_at": "2023-05-11T11:48:49.000+02:00",
    "parent_ids": [
      "439c100a912d242b60b33e447b8d2331defb78f0"
    ],
    "title": "number of cpus",
    "message": "number of cpus\n",
    "author_name": "Jiří",
    "author_email": "jiri.turyna@jablotron.cz",
    "authored_date": "2023-05-11T11:48:49.000+02:00",
    "committer_name": "Jiří",
    "committer_email": "jiri.turyna@jablotron.cz",
    "committed_date": "2023-05-11T11:48:49.000+02:00",
    "trailers": {},
    "web_url": "https://gitlab.com/turyji/bp-turyna/-/commit/70acd2326835049352c17e4f9fbe681f8f82698f"
  },
  "pipeline": {
    "id": 864321887,
    "iid": 163,
    "project_id": 32057431,
    "sha": "70acd2326835049352c17e4f9fbe681f8f82698f",
    "ref": "main",
    "status": "success",
    "source": "web",
    "created_at": "2023-05-11T12:04:31.323Z",
    "updated_at": "2023-05-11T12:06:36.993Z",
    "web_url": "https://gitlab.com/turyji/bp-turyna/-/pipelines/864321887"
  },
  "web_url": "https://gitlab.com/turyji/bp-turyna/-/jobs/4267468407",
  "project": {
    "ci_job_token_scope_enabled": false
  },
  "artifacts_file": {
    "filename": "artifacts.zip",
    "size": 636
  },
  "artifacts": [
    {
      "file_type": "archive",
      "size": 636,
      "filename": "artifacts.zip",
      "file_format": "zip"
    },
    {
      "file_type": "metadata",
      "size": 191,
      "filename": "metadata.gz",
      "file_format": "gzip"
    },
    {
      "file_type": "trace",
      "size": 12824,
      "filename": "job.log",
      "file_format": null
    }
  ],
  "runner": {
    "id": 23344354,
    "description": "DESKTOP-NB5KN69",
    "ip_address": "88.103.225.217",
    "active": true,
    "paused": false,
    "is_shared": false,
    "runner_type": "project_type",
    "name": "gitlab-runner",
    "online": true,
    "status": "online"
  },
  "artifacts_expire_at": "2023-06-10T12:06:33.033Z",
  "tag_list": []
}
