5,50 
4,80 
4,55 
4,40 
4,20 
4,05 
3,90 
3,80 
3,75 
3,65 
3,55 
3,50 
3,40 
3,30 
3,20 
3,10 
2,95 
2,90 
2,85 
2,80 
2,80 
2,70 
2,65 
2,60 
2,60 
2,55 
2,50 
2,45 
2,40 
2,30 
2,30 
2,25 
2,25 
2,20 
2,20 
2,15 
2,15 
2,10 
2,05 
1,95 
1,95 
1,90 
1,90 
1,90 
1,80 
1,80 
1,80 
1,80 
1,70 
1,70 
1,70 
1,65 
1,65 
1,65 
1,60 
1,60 
1,55 
1,55 
1,50 
1,50 
1,50 
